// Jest Snapshot v1, https://goo.gl/fbAQLP

exports[`It renders error message renders 1`] = `
<DocumentFragment>
  <div
    class="widget"
    style="margin: 10px; width: 300px;"
  >
    <div
      class="panel panel-warning"
    >
      <div
        class="panel-heading"
      >
        This is an error
      </div>
      <ul
        class="list-group"
      >
        <li
          class="list-group-item"
        >
          Temperature:
          <b>
             
          </b>
        </li>
        <li
          class="list-group-item"
        >
          Humidity: 
          <b
            data-testid="humidity"
          />
        </li>
        <li
          class="list-group-item"
        >
          Wind:
          <b
            data-testid="wind"
          />
        </li>
        <li
          class="list-group-item"
        >
          <form
            action="/"
            class="form-inline"
          >
            <div
              class="form-group"
            >
              <input
                class="form-control"
                id="city"
                name="city"
                placeholder="City"
                type="text"
                value=""
              />
            </div>
            <button
              class="btn btn-default"
              type="submit"
            >
              Search
            </button>
          </form>
        </li>
      </ul>
    </div>
  </div>
</DocumentFragment>
`;

exports[`It renders loading message renders 1`] = `
<DocumentFragment>
  <div>
    ...Loading
  </div>
</DocumentFragment>
`;

exports[`It renders with weatherdata renders 1`] = `
<DocumentFragment>
  <div
    class="widget"
    style="margin: 10px; width: 300px;"
  >
    <div
      class="panel panel-info"
    >
      <div
        class="panel-heading"
      >
        Weather in 
        <b
          data-testid="city"
        >
          Skagen
        </b>
      </div>
      <ul
        class="list-group"
      >
        <li
          class="list-group-item"
        >
          Temperature:
          <b>
            31 °C
          </b>
        </li>
        <li
          class="list-group-item"
        >
          Humidity: 
          <b
            data-testid="humidity"
          >
            20
          </b>
        </li>
        <li
          class="list-group-item"
        >
          Wind:
          <b
            data-testid="wind"
          >
            1.4 m/s N
          </b>
        </li>
        <li
          class="list-group-item"
        >
          <form
            action="/"
            class="form-inline"
          >
            <div
              class="form-group"
            >
              <input
                class="form-control"
                id="city"
                name="city"
                placeholder="City"
                type="text"
                value=""
              />
            </div>
            <button
              class="btn btn-default"
              type="submit"
            >
              Search
            </button>
          </form>
        </li>
      </ul>
    </div>
  </div>
</DocumentFragment>
`;
